…
+     str_detect(article_url,fixed("econometric")) ~ "ecta",
+     TRUE ~ "unknown"),
+     article_doi = case_when(
+       !is.na(article_doi) ~ article_doi,
+       # https://www.aeaweb.org/articles?id=10.1257/aer.20150361  
+       publisher == "aea" ~ str_remove(article_url,fixed("https://www.aeaweb.org/articles?id=")),
+       # https://academic.oup.com/restud/article/81/1/1/1727641
+       # publisher == "oup" ~ cannot be transformed
+       # https://www.journals.uchicago.edu/doi/abs/10.1086/704494     
+       publisher == "ucp" ~ str_remove(article_url,fixed("https://www.journals.uchicago.edu/doi/abs/"))
+       # https://www.econometricsociety.org/publications/econometrica/2019/01/01/aggregate-betting-data-individual-risk-preferences
+       # publisher == "ecta" ~ cannot be transformed
+     )
+   )
# A tibble: 11,203 × 14
# Groups:   journ [17]
   id            journ title  year  date   vol issue artnum article_url has_data
   <chr>         <chr> <chr> <int> <int> <int> <int>  <int> <chr>          <int>
 1 aer_108_11_1  aer   Firm…  2018 17836   108    11      1 https://ww…        1
 2 aer_108_11_2  aer   Near…  2018 17836   108    11      2 https://ww…        1
 3 aer_108_11_3  aer   The …  2018 17836   108    11      3 https://ww…        1
 4 aer_108_11_4  aer   The …  2018 17836   108    11      4 https://ww…        1
 5 aer_108_11_5  aer   Stra…  2018 17836   108    11      5 https://ww…        1
 6 aer_108_11_6  aer   Meas…  2018 17836   108    11      6 https://ww…        1
 7 aer_108_11_7  aer   Mism…  2018 17836   108    11      7 https://ww…        1
 8 aer_108_11_8  aer   Temp…  2018 17836   108    11      8 https://ww…        1
 9 aer_108_11_9  aer   The …  2018 17836   108    11      9 https://ww…        1
10 aer_108_11_10 aer   BKK …  2018 17836   108    11     10 https://ww…        1
# ℹ 11,193 more rows
# ℹ 4 more variables: data_url <chr>, article_doi <chr>, data_doi <chr>,
#   publisher <chr>
…
