…
+     str_detect(article_url,fixed("econometric")) ~ "ecta",
+     TRUE ~ "unknown"),
+     article_doi = case_when(
+       !is.na(article_doi) ~ article_doi,
+       # https://www.aeaweb.org/articles?id=10.1257/aer.20150361  
+       publisher == "aea" ~ str_remove(article_url,fixed("https://www.aeaweb.org/articles?id=")),
+       # https://academic.oup.com/restud/article/81/1/1/1727641
+       # publisher == "oup" ~ cannot be transformed
+       # https://www.journals.uchicago.edu/doi/abs/10.1086/704494     
+       publisher == "ucp" ~ str_remove(article_url,fixed("https://www.journals.uchicago.edu/doi/abs/"))
+       # https://www.econometricsociety.org/publications/econometrica/2019/01/01/aggregate-betting-data-individual-risk-preferences
+       # publisher == "ecta" ~ cannot be transformed
+     )
+   )
# A tibble: 11,203 × 14
# Groups:   journ [17]
   id            journ title  year  date   vol issue artnum article_url has_data
   <chr>         <chr> <chr> <int> <int> <int> <int>  <int> <chr>          <int>
 1 aer_108_11_1  aer   Firm…  2018 17836   108    11      1 https://ww…        1
 2 aer_108_11_2  aer   Near…  2018 17836   108    11      2 https://ww…        1
 3 aer_108_11_3  aer   The …  2018 17836   108    11      3 https://ww…        1
 4 aer_108_11_4  aer   The …  2018 17836   108    11      4 https://ww…        1
 5 aer_108_11_5  aer   Stra…  2018 17836   108    11      5 https://ww…        1
 6 aer_108_11_6  aer   Meas…  2018 17836   108    11      6 https://ww…        1
 7 aer_108_11_7  aer   Mism…  2018 17836   108    11      7 https://ww…        1
 8 aer_108_11_8  aer   Temp…  2018 17836   108    11      8 https://ww…        1
 9 aer_108_11_9  aer   The …  2018 17836   108    11      9 https://ww…        1
10 aer_108_11_10 aer   BKK …  2018 17836   108    11     10 https://ww…        1
# ℹ 11,193 more rows
# ℹ 4 more variables: data_url <chr>, article_doi <chr>, data_doi <chr>,
#   publisher <chr>
…
> 
> # by journal
> analysis_software %>% 
+   group_by(journ,id) %>%
+   summarize(across(starts_with("present_"),max)) %>%
+   ungroup() %>%
+   group_by(journ) %>%
+   summarize(articles=n(),
+             across(starts_with("present_"),sum)) %>%
+   pivot_longer(starts_with("present_")) %>%
+   mutate(Percent = 100*value/articles)  -> analysis_software.byj.table
`summarise()` has grouped output by 'journ'. You can override using the
`.groups` argument.
> analysis_software.byj.table
# A tibble: 170 × 5
   journ  articles name                value Percent
   <chr>     <int> <chr>               <int>   <dbl>
 1 aejapp      610 present_python         18   2.95 
 2 aejapp      610 present_julia           1   0.164
 3 aejapp      610 present_notebooks       2   0.328
 4 aejapp      610 present_r              43   7.05 
 5 aejapp      610 present_stata         584  95.7  
 6 aejapp      610 present_matlab         40   6.56 
 7 aejapp      610 present_mathematica     1   0.164
 8 aejapp      610 present_ampl            0   0    
 9 aejapp      610 present_dynare          0   0    
10 aejapp      610 present_ox              0   0    
# ℹ 160 more rows
…
